Spider Number,Site,Site Class,Family,Genus,Sex,Abdomen length (mm),Chelicera to end of abdomen (mm),
1,LB,P,tetragnathidae,tetragnatha,male,5.4,10.2,
2,LB,P,tetragnathidae,glenognatha,female,2.4,4,
3,LB,P,araneidae,eustala,male,3.6,7,tapered body
4,LB,P,tetragnathidae,tetragnatha,male,6,11,
5,LB,P,tetragnathidae,tetragnatha,female,4.5,6.5,
6,LB,P,tetragnathidae,tetragnatha,female,3.8,6,
7,LB,P,tetragnathidae,tetragnatha,female,3.8,6,
8,LB,P,tetragnathidae,tetragnatha,female,2.2,3.6,
9,LB,P,tetragnathidae,tetragnatha,female,3.6,5.2,
10,LB,P,tetragnathidae,tetragnatha,male,5.8,11.6,
11,LB,P,tetragnathidae,tetragnatha,female,7.8,13.4,
12,LB,P,tetragnathidae,tetragnatha,female,3,5,
13,LB,P,tetragnathidae,tetragnatha,female,2.1,3.6,
14,LB,P,tetragnathidae,instar,,,,
15,LB,P,tetragnathidae,tetragnatha,female,2.3,3.8,
16,LB,P,too smushed to ID,,,,,
17,LB,P,tetragnathidae,tetragnatha,female,3.4,5,
18,LB,P,tetragnathidae,tetragnatha,female,2.2,3.6,
19,LB,P,tetragnathidae,tetragnatha,male,5.4,10.8,
20,LB,P,araneidae,smushed?,female,2.6,3.8,
21,LB,P,tetragnathidae,tetragnatha,male,2.5,4.4,
22,LB,P,tetragnathidae,tetragnatha,female,2.8,4.3,
23,LB,P,tetragnathidae,tetragnatha,female,3.8,5.6,
24,LB,P,tetragnathidae,tetragnatha,female,3,4.4,
25,LB,P,tetragnathidae,tetragnatha,male,5.4,10.4,
26,LB,P,too smushed to ID,,,,,
27,LB,P,tetragnathidae,tetragnatha,female,6.2,9,
28,LB,P,tetragnathidae,tetragnatha,female,1.6,2.4,
29,LB,P,tetragnathidae,tetragnatha,female,4,7.2,
30,LB,P,tetragnathidae,tetragnatha,male,4.8,10,
31,LB,P,tetragnathidae,tetragnatha,female,3.2,5,
32,LB,P,tetragnathidae,tetragnatha,female,3.2,4.6,
33,LB,P,tetragnathidae,tetragnatha,male,3.2,5.2,
34,LB,P,tetragnathidae,tetragnatha,female,4.4,7,
35,LB,P,tetragnathidae,tetragnatha,female,2.6,4.2,
36,LB,P,tetragnathidae,tetragnatha,female,2.5,3.8,
37,LB,P,too smushed to ID,,,,,
38,LB,P,tetragnathidae,tetragnatha,female,3.8,5.7,
39,LB,P,tetragnathidae,instar,male,2,3.8,
40,LB,P,tetragnathidae,leucauge,male,3.2,4.4,
41,LB,P,tetragnathidae,tetragnatha,female,3.1,6.6,
42,LB,P,tetragnathidae,instar,female,3,4.4,
43,LB,P,tetragnathidae,tetragnatha,female,4.2,7.4,
44,LB,P,tetragnathidae,leucauge,female,3,4.4,
45,LB,P,araneidae,gea?,male,4,7.8,same genus as 67
46,LB,P,Se speciation,,,,,
47,LB,P,tetragnathidae,leucauge,male,2.6,3.8,
48,LB,P,tetragnathidae,tetragnatha,female,4,6.4,
49,LB,P,tetragnathidae,tetragnatha,female,5.8,8.2,
50,LB,P,tetragnathidae,tetragnatha,female,2.8,4.4,
51,LB,P,tetragnathidae,tetragnatha,female,3.2,5,
52,LB,P,tetragnathidae,tetragnatha,female,4.4,7.2,
53,LB,P,tetragnathidae,tetragnatha,male,6.6,9.2,
54,LB,P,tetragnathidae,leucauge,male,2,3.4,
55,LB,P,tetragnathidae,tetragnatha,female,4.8,7.2,
56,LB,P,tetragnathidae,tetragnatha,female,5.6,9.5,
57,LB,P,tetragnathidae,tetragnatha,female,4.9,7,
58,LB,P,tetragnathidae,tetragnatha,female,3.6,5,
59,LB,P,tetragnathidae,tetragnatha,female,5.8,10,
60,LB,P,tetragnathidae,tetragnatha,female,3.3,5.4,
61,LB,P,tetragnathidae,tetragnatha,female,3.5,5.3,
62,LB,P,tetragnathidae,tetragnatha,female,2.5,4,
63,LB,P,tetragnathidae,tetragnatha,female,2.3,4,
64,LB,P,tetragnathidae,tetragnatha,female,4,6,
65,LB,P,tetragnathidae,leucauge,female,3.4,4.8,
66,LB,P,tetragnathidae,tetragnatha,female,5.6,8.4,
67,LB,P,araneidae,gea?,male,5,9,
68,LB,P,tetragnathidae,leucauge,female,4.2,7,
69,LB,P,tetragnathidae,tetragnatha,female,3.4,5.6,
70,LB,P,tetragnathidae,tetragnatha,female,5.2,8,
71,LB,P,tetragnathidae,tetragnatha,male,4,7.2,
72,LB,P,Se speciation,,,,,
73,LB,P,tetragnathidae,tetragnatha,female,5.4,8.2,
74,LB,P,tetragnathidae,tetragnatha,female,3,4.4,
75,LB,P,tetragnathidae,tetragnatha,female,7,9.4,
76,LB,P,tetragnathidae,tetragnatha,female,3.4,5.4,
77,LB,P,tetragnathidae,tetragnatha,female,5.2,8.4,
78,LB,P,tetragnathidae,tetragnatha,female,5,9,
79,LB,P,tetragnathidae,tetragnatha,female,5.8,9.4,
80,LB,P,tetragnathidae,tetragnatha,female,4,6.1,
81,SF,N,tetragnathidae,tetragnatha,male,5.6,8.4,
82,SF,N,tetragnathidae,tetragnatha,female,5.4,8.9,
83,SF,N,tetragnathidae,tetragnatha,female,5.5,9.2,
84,SF,N,tetragnathidae,tetragnatha,female,4.8,8.5,
85,SF,N,tetragnathidae,tetragnatha,female,5.1,8.4,
86,SF,N,tetragnathidae,tetragnatha,male ,4.1,5.8,
87,SF,N,tetragnathidae,tetragnatha,female,3.4,5.1,
88,SF,N,tetragnathidae,tetragnatha,male,3.9,6.4,
89,SF,N,tetragnathidae,tetragnatha,female,5.9,9.6,
90,SF,N,tetragnathidae,leucauge,male,2.6,4.4,
91,SF,N,tetragnathidae,tetragnatha,female,4.7,8.9,
92,SF,N,tetragnathidae,tetragnatha,female,4.4,6.7,
93,SF,N,tetragnathidae,tetragnatha,female,3.5,5.7,
94,SF,N,tetragnathidae,tetragnatha,female,5.3,9,
95,SF,N,tetragnathidae,tetragnatha,female,7.1,10.7,
96,SF,N,tetragnathidae,leucauge,female,2.3,4,
97,SF,N,tetragnathidae,tetragnatha,female,5.5,9.5,
98,SF,N,tetragnathidae,tetragnatha,male,4.9,9.6,
99,SF,N,tetragnathidae,instar,,,,
100,SF,N,tetragnathidae,instar,,,,
101,SF,N,tetragnathidae,tetragnatha,male,5.7,8.4,
102,SF,N,tetragnathidae,tetragnatha,female,7.5,10.8,
103,SF,N,tetragnathidae,tetragnatha,female,3.4,5.8,
104,SF,N,too smushed to ID,,,,,
105,SF,N,tetragnathidae,leucauge,female,1.8,2.1,
106,SF,N,Se speciation,,,,,
107,SF,N,tetragnathidae,tetragnatha,female,5,7.9,
108,SF,N,tetragnathidae,tetragnatha,male,5.6,8.8,
109,SF,N,tetragnathidae,leucauge,male,3,5,
110,SF,N,Se speciation,,,,,
111,SF,N,tetragnathidae,leucauge,male,3,5,
112,SF,N,tetragnathidae,tetragnatha,female,4.5,6.5,
113,SF,N,tetragnathidae,tetragnatha,female,8,12.5,
114,SF,N,tetragnathidae,leucauge,female,3.3,5.1,
115,SF,N,tetragnathidae,tetragnatha,male,4.4,7.1,
116,SF,N,tetragnathidae,instar,,,,
117,SF,N,tetragnathidae,instar,,,,
118,SF,N,tetragnathidae,tetragnatha,female,3.7,6.3,
119,SF,N,tetragnathidae,tetragnatha,female,3.8,6.7,
120,SF,N,tetragnathidae,tetragnatha,female,3.9,6.5,
121,SF,N,tetragnathidae,tetragnatha,female,2.8,5,
122,SF,N,tetragnathidae,tetragnatha,male,4.3,8.8,
123,SF,N,tetragnathidae,tetragnatha,male,5.3,9.4,
124,SF,N,tetragnathidae,tetragnatha,male,4.4,8.3,
125,RB,U,tetragnathidae,tetragnatha,female,3.8,5.5,
126,RB,U,araneidae,too smushed to ID,female,,,
127,RB,U,tetragnathidae,tetragnatha,female,4.1,6,
128,RB,U,tetragnathidae,tetragnatha,female,3.7,6.7,
129,RB,U,tetragnathidae,tetragnatha,female,3.4,5.9,
130,RB,U,tetragnathidae,tetragnatha,male,4.4,8,
131,RB,U,tetragnathidae,leucauge,female,2,2.9,
132,RB,U,tetragnathidae,tetragnatha,female,5.7,9.5,
133,RB,U,tetragnathidae,tetragnatha,male,2.7,6.8,
134,RB,U,tetragnathidae,tetragnatha,female,3.4,5.5,
135,RB,U,tetragnathidae,leucauge,male,2.6,4,
136,RB,U,tetragnathidae,tetragnatha,female,4.2,7.3,
137,RB,U,tetragnathidae,tetragnatha,female,4.5,6.7,
138,RB,U,tetragnathidae,tetragnatha,female,4.7,7.3,
139,RB,U,tetragnathidae,instar,,,,
140,RB,U,tetragnathidae,leucauge,female,2,2.9,
141,RB,U,tetragnathidae,leucauge,female,3.2,4.5,smushed
142,RB,U,tetragnathidae,instar,,,,
143,RB,U,tetragnathidae,tetragnatha,female,7.3,9.1,
144,RB,U,tetragnathidae,tetragnatha,female,1.9,3.3,
145,RB,U,tetragnathidae,tetragnatha,female,7.1,9.5,
146,RB,U,tetragnathidae,tetragnatha,female,2.3,3.8,
147,RB,U,tetragnathidae,tetragnatha,female,5.5,9,
148,RB,U,tetragnathidae,tetragnatha,male,4.2,8,
149,RB,U,too smushed to ID,,,,,
150,RB,U,tetragnathidae,leucauge,male,2.4,4.4,
151,RB,U,tetragnathidae,leucauge,male,2,5.7,
152,RB,U,tetragnathidae,tetragnatha,female,6.3,8.5,
153,RB,U,tetragnathidae,tetragnatha,male,4,6,
154,RB,U,tetragnathidae,instar,,,,
155,RB,U,tetragnathidae,tetragnatha,male,5.5,8.3,
156,RB,U,tetragnathidae,tetragnatha,male,4.8,8,
157,RB,U,tetragnathidae,tetragnatha,male,4.2,8.5,
158,RB,U,tetragnathidae,tetragnatha,male,5.5,8.6,
159,RB,U,tetragnathidae,instar,,,,
160,RB,U,tetragnathidae,instar,,,,
161,RB,U,tetragnathidae,instar,,,,
162,RB,U,tetragnathidae,instar,,,,
163,RB,U,tetragnathidae,instar,,,,
164,RB,U,tetragnathidae,tetragnatha,female,4.3,6.3,
165,RB,U,tetragnathidae,leucauge,female,1.9,4,
166,RB,U,tetragnathidae,tetragnatha,male,5.4,11,
167,RB,U,tetragnathidae,instar,,,,
168,RB,U,tetragnathidae,instar,,,,
169,RB,U,tetragnathidae,instar,,,,
170,RB,U,tetragnathidae,instar,,,,
171,RB,U,tetragnathidae,instar,,,,
172,RB,U,tetragnathidae,tetragnatha,female,4.5,7.1,
173,RB,U,tetragnathidae,tetragnatha,male,5.9,10,
174,RB,U,tetragnathidae,tetragnatha,female,5.9,10.4,
175,RB,U,tetragnathidae,instar,,,,
176,RB,U,tetragnathidae,tetragnatha,female,2.1,3.4,
177,RB,U,tetragnathidae,tetragnatha,male,5,8.7,
178,RB,U,tetragnathidae,tetragnatha,male,4,6.5,
179,RB,U,tetragnathidae,tetragnatha,female,3,5.4,
180,RB,U,tetragnathidae,tetragnatha,female,2.3,3.5,
181,RB,U,tetragnathidae,instar,,,,
182,RB,U,tetragnathidae,tetragnatha,female,3.2,5.4,
183,RB,U,araneidae,araneus?,,,,
184,RB,U,tetragnathidae,tetragnatha,male,3.2,5.7,
185,RB,U,tetragnathidae,tetragnatha,male,5,8.9,
186,RB,U,tetragnathidae,tetragnatha,female,4.6,6.8,
187,RB,U,tetragnathidae,instar,,,,
188,RB,U,tetragnathidae,instar,,,,
189,RB,U,tetragnathidae,instar,,,,
190,RB,U,tetragnathidae,instar,,,,
191,RB,U,tetragnathidae,too smushed to ID,,,,
192,RB,U,tetragnathidae,instar,,,,
193,RB,U,tetragnathidae,instar,,,,
194,RB,U,tetragnathidae,instar,,,,
195,RB,U,tetragnathidae,instar,,,,
196,RB,U,tetragnathidae,instar,,,,
197,RB,U,tetragnathidae,instar,,,,
198,RB,U,too smushed to ID,,,,,
199,RB,U,tetragnathidae,tetragnatha,female,3.1,4.5,
200,RB,U,tetragnathidae,tetragnatha,male,5.1,11.2,
201,RB,U,tetragnathidae,instar,,,,
202,RB,U,tetragnathidae,instar,,,,
203,RB,U,tetragnathidae,instar,,,,
204,RB,U,tetragnathidae,tetragnatha,female,5.4,8.8,
205,RB,U,tetragnathidae,tetragnatha,female,4,6,
206,RB,U,tetragnathidae,leucauge,female,2,2.8,
207,RB,U,tetragnathidae,tetragnatha,female,3.1,5.1,
208,RB,U,tetragnathidae,tetragnatha,male,2.4,4.1,
209,RB,U,tetragnathidae,tetragnatha,female,3.9,5.3,
210,RB,U,tetragnathidae,tetragnatha,female,3.9,6.4,
211,RB,U,tetragnathidae,tetragnatha,female,1.9,3.4,
212,RB,U,tetragnathidae,tetragnatha,female,3.5,5.4,
213,RB,U,tetragnathidae,tetragnatha,female,5.2,7.9,
214,RB,U,,,,,,
215,RB,U,tetragnathidae,tetragnatha,female,4.4,6.4,
216,RB,U,tetragnathidae,tetragnatha,female,3.4,5.6,
217,RB,U,tetragnathidae,tetragnatha,male,3.7,5.3,
218,RB,U,tetragnathidae,tetragnatha,male,3.9,6.3,
219,RB,U,tetragnathidae,tetragnatha,female,2.5,4,
220,RB,U,tetragnathidae,leucauge,female,1.5,2.5,
221,RB,U,tetragnathidae,tetragnatha,female,6.2,11.1,
222,RB,U,tetragnathidae,leucauge,female,1.4,3,
223,RB,U,tetragnathidae,leucauge,male,2,5.2,
224,RB,U,tetragnathidae,instar,,,,
225,RB,U,Se speciation,,,,,
226,RB,U,tetragnathidae,instar,,,,
227,RB,U,tetragnathidae,instar,,,,
228,RB,U,tetragnathidae,tetragnatha,male,4.6,9,
229,RB,U,tetragnathidae,tetragnatha,female,4,7,
230,RB,U,tetragnathidae,instar,,,,
231,RB,U,tetragnathidae,instar,,,,
232,RB,U,tetragnathidae,leucauge,female,2.1,3.7,
233,RB,U,tetragnathidae,instar,,,,
234,RB,U,tetragnathidae,leucauge,female,3.7,5.5,
235,RB,U,tetragnathidae,leucauge,male,2.2,3.6,
236,RB,U,tetragnathidae,tetragnatha,female,7,9.8,
237,RB,U,Se speciation,,,,,
238,RB,U,araneidae,araneus,,,,
239,RB,U,tetragnathidae,tetragnatha,female,4,6.8,
240,RB,U,tetragnathidae,instar,,,,
241,RB,U,tetragnathidae,leucauge,male,1.5,2.8,
242,ST,P,tetragnathidae,tetragnatha,,2.4,3.8,
243,ST,P,tetragnathidae,leucauge,female,2.4,3.8,
244,ST,P,tetragnathidae,instar,,,,
245,ST,P,tetragnathidae,tetragnatha,female,2.9,4.4,
246,ST,P,tetragnathidae,tetragnatha,female,5.6,11.3,
247,ST,P,,,,,,
248,ST,P,tetragnathidae,tetragnatha,female,3.3,5,
249,ST,P,tetragnathidae,tetragnatha,female,2.3,3.5,
250,ST,P,tetragnathidae,leucauge,male,2,3.1,
251,ST,P,tetragnathidae,tetragnatha,female,1.7,2.7,
252,ST,P,tetragnathidae,leucauge,male,2.9,3.9,
253,ST,P,tetragnathidae,instar,,,,
254,ST,P,tetragnathidae,tetragnatha,male,4.1,6.4,
255,ST,P,tetragnathidae,tetragnatha,female,5,8.1,
256,ST,P,tetragnathidae,tetragnatha,male,4.4,6.3,
257,ST,P,tetragnathidae,tetragnatha,female,6.8,11.4,
258,ST,P,tetragnathidae,tetragnatha,female,6,10.2,
259,ST,P,too smushed to ID,,,,,
260,ST,P,tetragnathidae,tetragnatha,female,3.7,4.3,
261,ST,P,tetragnathidae,tetragnatha,female,3.6,5.3,
262,ST,P,too smushed to ID,,,,,
263,ST,P,tetragnathidae,tetragnatha,male,7.2,9.8,
264,ST,P,tetragnathidae,tetragnatha,female,4.3,8.3,
265,ST,P,tetragnathidae,tetragnatha,female,5.2,9.1,
266,ST,P,tetragnathidae,tetragnatha,female,5.2,9.2,
267,ST,P,araneidae,instar,,,,
268,ST,P,tetragnathidae,tetragnatha,female,3.2,5,
269,ST,P,tetragnathidae,tetragnatha,female,3.3,5,
270,ST,P,too smushed to ID,,,,,
271,ST,P,tetragnathidae,tetragnatha,male,2.5,4.3,
272,ST,P,tetragnathidae,tetragnatha,male,4.7,12.4,
273,ST,P,tetragnathidae,leucauge,male,2.8,4,
274,ST,P,tetragnathidae,leucauge,female,2.2,3.4,
275,ST,P,tetragnathidae,leucauge,male,2.4,3.7,
276,ST,P,tetragnathidae,leucauge,male,2.9,4,
277,ST,P,tetragnathidae,leucauge,female,2.4,4,
278,ST,P,tetragnathidae,leucauge,male,abdomen detached from body,,
279,ST,P,tetragnathidae,leucauge,male,2.5,4,
280,ST,P,tetragnathidae,instar,,,,
281,ST,P,tetragnathidae,tetragnatha,female,3.2,5.1,
282,ST,P,tetragnathidae,instar,,,,
283,ST,P,tetragnathidae,leucauge,male,abdomen detached from body,,
284,ST,P,tetragnathidae,leucauge,male,2.3,3.9,
285,ST,P,tetragnathidae,leucauge,female,3.3,5,
286,ST,P,tetragnathidae,tetragnatha,male,6.2,10,
287,ST,P,tetragnathidae,tetragnatha,female,3.6,5.5,
288,ST,P,araneidae,scoloderus,female,2.8,5,
289,ST,P,tetragnathidae,instar,,,,
290,ST,P,tetragnathidae,leucauge,male,2.4,3.3,
291,ST,P,tetragnathidae,leucauge,male,3.2,4.3,
292,ST,P,tetragnathidae,leucauge,female,2.5,3.3,
293,ST,P,tetragnathidae,tetragnatha,female,3.8,6.2,
294,ST,P,tetragnathidae,tetragnatha,male,4,7,
295,ST,P,tetragnathidae,leucauge,female,2.2,3.5,
296,ST,P,tetragnathidae,tetragnatha,male,4.4,7.6,
297,ST,P,tetragnathidae,leucauge,male,2,4,
298,ST,P,tetragnathidae,leucauge,female,1.7,2.4,
299,ST,P,tetragnathidae,leucauge,male,2,3.1,
300,ST,P,tetragnathidae,tetragnatha,male,5.9,9,
301,ST,P,tetragnathidae,leucauge,female,3.5,4.6,
302,ST,P,tetragnathidae,tetragnatha,female,6.3,10.5,
303,ST,P,tetragnathidae,leucauge,female,2.3,3.8,
304,ST,P,tetragnathidae,tetragnatha,female,3.6,5.4,
305,ST,P,tetragnathidae,tetragnatha,female,2.4,3.1,
306,ST,P,tetragnathidae,tetragnatha,female,6.9,10.4,
307,ST,P,tetragnathidae,tetragnatha,male,5.1,9.8,
308,ST,P,tetragnathidae,leucauge,male,2.1,3.9,
309,ST,P,tetragnathidae,tetragnatha,female,4.7,6.5,
310,ST,P,tetragnathidae,tetragnatha,female,4.8,7,
311,ST,P,tetragnathidae,tetragnatha,female,3.6,5.3,
312,ST,P,tetragnathidae,tetragnatha,female,6.6,9.6,
313,ST,P,tetragnathidae,tetragnatha,male,5.7,8.6,
314,ST,P,tetragnathidae,leucauge,male,2.6,3.5,
315,ST,P,tetragnathidae,tetragnatha,female,2.9,4.3,
316,ST,P,tetragnathidae,tetragnatha,male,6,8.8,
317,ST,P,tetragnathidae,tetragnatha,female,4.5,7.5,
318,ST,P,araneidae,scoloderus,female,2.2,3.9,
319,ST,P,tetragnathidae,tetragnatha,male,4.9,9,
320,ST,P,tetragnathidae,tetragnatha,female,3.4,5.3,
321,ST,P,tetragnathidae,tetragnatha,female,3.3,5.2,
322,ST,P,tetragnathidae,tetragnatha,male,7,9.3,
323,ST,P,tetragnathidae,tetragnatha,male,4.1,6.7,
324,ST,P,tetragnathidae,leucauge,female,abdomen detached from body,,
325,ST,P,tetragnathidae,tetragnatha,female,5.1,8.2,
326,ST,P,tetragnathidae,tetragnatha,female,5,7,
327,ST,P,tetragnathidae,leucauge,female,2.1,3.3,
328,ST,P,tetragnathidae,tetragnatha,female,5,6.4,
329,ST,P,tetragnathidae,tetragnatha,female,6.1,12.4,
330,ST,P,tetragnathidae,tetragnatha,male,4,5.9,
331,ST,P,Se speciation,,,,,
332,ST,P,tetragnathidae,tetragnatha,female,4,6.8,
333,ST,P,tetragnathidae,tetragnatha,female,5.9,9.7,
334,ST,P,araneidae,scoloderus,female,2.3,4.2,get confirmation
335,ST,P,tetragnathidae,tetragnatha,female,4.7,8.5,
336,ST,P,araneidae,scoloderus,female,2.7,4,
337,ST,P,tetragnathidae,tetragnatha,female,3.4,5.5,
338,ST,P,tetragnathidae,tetragnatha,female,8.1,13.3,
339,ST,P,tetragnathidae,tetragnatha,female,6.4,9.3,
340,ST,P,araneidae,scoloderus,female,2.3,4.1,
341,ST,P,tetragnathidae,leucauge,male,2.7,4,
342,ST,P,tetragnathidae,tetragnatha,female,6.7,9,
343,ST,P,tetragnathidae,tetragnatha,male,4,7.3,
344,ST,P,tetragnathidae,tetragnatha,male,3.9,7.8,
345,ST,P,tetragnathidae,leucauge,female,1.9,3.3,
346,ST,P,tetragnathidae,tetragnatha,male,4.5,9.8,
347,ST,P,tetragnathidae,leucauge,male,2.5,4,
348,ST,P,araneidae,scoloderus?,,,,
349,ST,P,araneidae,scoloderus?,female,3,4.3,
350,ST,P,tetragnathidae,tetragnatha,female,5,8.3,
351,ST,P,tetragnathidae,leucauge,male,2.3,3.8,
352,ST,P,tetragnathidae,leucauge,female,2,4.2,
353,ST,P,tetragnathidae,leucauge,female,3.4,4.7,
354,ST,P,tetragnathidae,tetragnatha,female,6.7,9,
355,ST,P,tetragnathidae,tetragnatha,female,3.4,4.4,
356,ST,P,tetragnathidae,tetragnatha,male,3.6,6.3,
357,ST,P,tetragnathidae,tetragnatha,female,5.6,8.4,
358,ST,P,tetragnathidae,tetragnatha,male,4.2,8.1,
359,ST,P,tetragnathidae,leucauge,male,2.3,3.3,
360,ST,P,tetragnathidae,tetragnatha,female,5.9,10.5,
361,ST,P,tetragnathidae,tetragnatha,female,3.9,5.9,
362,ST,P,tetragnathidae,tetragnatha,female,6.3,12.3,
363,ST,P,araneidae,instar,,,,
364,ST,P,tetragnathidae,tetragnatha,female,3.8,5.4,
365,ST,P,tetragnathidae,tetragnatha,female,4.7,7.4,
366,ST,P,araneidae,cyclosa,female,2.5,4.3,
367,ST,P,tetragnathidae,tetragnatha,female,6.5,9.3,
368,ST,P,tetragnathidae,tetragnatha,female,3.8,5.3,
369,ST,P,tetragnathidae,tetragnatha,female,6.1,11.6,
370,ST,P,tetragnathidae,tetragnatha,male,3.8,6.3,
371,ST,P,Se speciation,,,,,
372,ST,P,tetragnathidae,tetragnatha,male,4,5.8,
373,ST,P,tetragnathidae,tetragnatha,female,4.1,6.3,
374,ST,P,tetragnathidae,tetragnatha,female,6.1,10.1,
375,ST,P,tetragnathidae,leucauge,female,2,3.4,
376,ST,P,tetragnathidae,tetragnatha,male,4.6,8.2,
377,ST,P,tetragnathidae,leucauge,male,2.1,3.3,
378,BF,N,tetragnathidae,tetragnatha,female,4.2,6.6,
379,BF,N,tetragnathidae,tetragnatha,female,2.2,3.7,
380,BF,N,tetragnathidae,instar,,,,
381,BF,N,tetragnathidae,instar,,,,
382,BF,N,tetragnathidae,tetragnatha,female,4.1,6.5,
383,BF,N,araneidae,cyclosa,,,,
384,BF,N,tetragnathidae,instar,,,,
385,BF,N,tetragnathidae,instar,,,,
386,BF,N,tetragnathidae,instar,,,,
387,BF,N,tetragnathidae,instar,,,,
388,BF,N,tetragnathidae,instar,,,,
389,BF,N,tetragnathidae,tetragnatha,male,4.4,6.3,
390,BF,N,tetragnathidae,instar,,,,
391,BF,N,tetragnathidae,instar,,,,
392,BF,N,tetragnathidae,instar,,,,
393,BF,N,tetragnathidae,instar,,,,
394,BF,N,tetragnathidae,instar,,,,
395,BF,N,tetragnathidae,instar,,,,
396,BF,N,tetragnathidae,instar,,,,
397,BF,N,tetragnathidae,instar,,,,
398,BF,N,tetragnathidae,tetragnatha,male,2.1,3,
399,BF,N,,,,,,
400,BF,N,tetragnathidae,instar,,,,
401,BF,N,tetragnathidae,tetragnatha,female,abdomen detached from body,,
402,BF,N,tetragnathidae,instar,,,,
403,BF,N,tetragnathidae,instar,,,,
404,BF,N,tetragnathidae,tetragnatha,female,4,6.4,
405,BF,N,tetragnathidae,tetragnatha,female,5.2,9.4,
406,BF,N,tetragnathidae,instar,,,,
407,BF,N,tetragnathidae,instar,,,,
408,BF,N,araneidae,scoloderus,female,2.2,3.8,
409,BF,N,tetragnathidae,instar,,,,
410,BF,N,tetragnathidae,instar,,,,
411,BF,N,tetragnathidae,instar,,,,
412,BF,N,tetragnathidae,instar,,,,
413,BF,N,tetragnathidae,instar,,,,
414,BF,N,tetragnathidae,tetragnatha,male,4.4,6.2,
415,BF,N,tetragnathidae,tetragnatha,male,4.1,5.9,
416,BF,N,tetragnathidae,instar,,,,
417,BF,N,tetragnathidae,tetragnatha,female,4,6.9,
418,BF,N,tetragnathidae,tetragnatha,male,3.3,6.4,
419,BF,N,tetragnathidae,leucauge,male,2,3,
420,BF,N,tetragnathidae,tetragnatha,female,2.6,4.3,
421,BF,N,tetragnathidae,tetragnatha,female,4.2,7,
422,BF,N,tetragnathidae,leucauge,female,2.2,3.5,
423,BF,N,tetragnathidae,tetragnatha,female,5.9,8.7,
424,BF,N,tetragnathidae,tetragnatha,female,4.4,6.5,
425,BF,N,tetragnathidae,tetragnatha,female,4.8,8.5,
426,BF,N,tetragnathidae,tetragnatha,female,4.5,7.2,
427,BF,N,tetragnathidae,instar,,,,
428,BF,N,tetragnathidae,leucauge,male,3.1,4.2,
429,BF,N,tetragnathidae,tetragnatha,female,4.7,8.1,
430,BF,N,tetragnathidae,tetragnatha,female,3.8,6.1,
431,BF,N,tetragnathidae,tetragnatha,male,3.2,5.1,
432,BF,N,tetragnathidae,tetragnatha,female,4.5,8.9,
433,BF,N,tetragnathidae,tetragnatha,female,4.9,7,
434,BF,N,tetragnathidae,leucauge,female,2.1,3,
435,BF,N,tetragnathidae,tetragnatha,female,3.7,6.1,
436,BF,N,tetragnathidae,instar,,,,
437,BF,N,tetragnathidae,instar,,,,
438,BF,N,tetragnathidae,tetragnatha,male,4,6.7,
439,BF,N,tetragnathidae,tetragnatha,female,3.5,5.2,
440,BF,N,tetragnathidae,leucauge,male,2,3,
441,BF,N,tetragnathidae,tetragnatha,male,3.2,5,
442,BF,N,tetragnathidae,tetragnatha,female,5,8.2,
443,BF,N,tetragnathidae,tetragnatha,male,4.4,6.1,
444,BF,N,tetragnathidae,tetragnatha,female,4.3,6.5,
445,BF,N,tetragnathidae,instar,,,,
446,BF,N,tetragnathidae,tetragnatha,female,5.4,7.4,
447,BF,N,tetragnathidae,tetragnatha,male,4.4,8.2,
448,BF,N,tetragnathidae,tetragnatha,male,4,7.2,
449,BF,N,tetragnathidae,leucauge,male,2.2,3.4,
450,BF,N,araneidae,eustala,,,,
451,BF,N,tetragnathidae,leucauge,male,1.5,3,
452,BF,N,tetragnathidae,tetragnatha,female,4.3,7.2,
453,BF,N,tetragnathidae,tetragnatha,female,5,7.4,
454,BF,N,tetragnathidae,tetragnatha,male,4.8,9,
455,BF,N,tetragnathidae,leucauge,male,2.7,3.6,
456,BF,N,tetragnathidae,leucauge,male,1.9,3.3,
457,BF,N,tetragnathidae,tetragnatha,female,5.4,9,
458,BF,N,tetragnathidae,tetragnatha,male,4.2,5.8,
459,BF,N,Se speciation,,,,,
460,BF,N,tetragnathidae,tetragnatha,female,4.5,7,
461,BF,N,tetragnathidae,instar,,,,
462,BF,N,tetragnathidae,instar,,,,
463,BF,N,tetragnathidae,instar,,,,
464,BF,N,tetragnathidae,tetragnatha,male,3.3,5.4,
465,BF,N,tetragnathidae,tetragnatha,female,2.2,3.3,
466,BF,N,tetragnathidae,tetragnatha,female,3.6,5,
467,BF,N,tetragnathidae,leucauge,male,2.7,3.8,
468,BF,N,tetragnathidae,instar,,,,
469,BF,N,tetragnathidae,tetragnatha,female,3.4,5.2,
470,BF,N,tetragnathidae,tetragnatha,female,4.1,7.2,
471,BF,N,tetragnathidae,leucauge,female,1.8,2.8,
472,BF,N,tetragnathidae,instar,,,,
473,BF,N,tetragnathidae,instar,,,,
474,BF,N,Se speciation,,,,,
475,BF,N,tetragnathidae,tetragnatha,male,4.1,6,
476,BF,N,tetragnathidae,instar,,,,
477,BF,N,too smushed to ID,,,,,
478,BF,N,tetragnathidae,instar,,,,
479,BF,N,tetragnathidae,instar,,,,
480,BF,N,tetragnathidae,tetragnatha,female,5.3,7.7,
481,BF,N,tetragnathidae,tetragnatha,female,6.7,9.5,
482,BF,N,tetragnathidae,tetragnatha,female,4.4,6.6,
483,MR2,U,tetragnathidae,tetragnatha,female,4,5.4,
484,MR2,U,tetragnathidae,tetragnatha,female,2.6,4.3,
485,MR2,U,tetragnathidae,tetragnatha,female,6.5,10,
486,MR2,U,tetragnathidae,tetragnatha,female,3.6,5.4,
487,MR2,U,tetragnathidae,tetragnatha,female,6.7,9,
488,MR2,U,tetragnathidae,tetragnatha,female,4.2,6.8,
489,MR2,U,tetragnathidae,tetragnatha,female,1.5,2.6,
490,MR2,U,tetragnathidae,tetragnatha,female,7,10,
491,MR2,U,tetragnathidae,tetragnatha,female,2.7,4.2,
492,MR2,U,Se speciation,,,,,
493,MR2,U,tetragnathidae,tetragnatha,male,6.2,10.5,
494A,MR2,U,tetragnathidae,leucauge,male,2.4,4,
494B,MR2,U,tetragnathidae,tetragnatha,female,6.1,8.5,
495,MR2,U,tetragnathidae,tetragnatha,female,4.1,6.9,
496,MR2,U,araenidae,gea,male,2.8,5.6,
497,MR2,U,tetragnathidae,tetragnatha,female,3.1,4.6,
498,MR2,U,tetragnathidae,tetragnatha,female,3.2,4.8,
499,MR2,U,tetragnathidae,tetragnatha,female,4.6,6.6,
500,MR2,U,tetragnathidae,tetragnatha,male,4.4,7.1,
501,MR2,U,tetragnathidae,tetragnatha,female,7.4,12,
502,MR2,U,tetragnathidae,tetragnatha,female,7,10.4,
503,MR2,U,tetragnathidae,tetragnatha,female,3.7,5.4,
504,MR2,U,tetragnathidae,tetragnatha,female,2.4,3.6,
505,MR2,U,tetragnathidae,tetragnatha,female,2.8,4.5,
506,MR2,U,tetragnathidae,tetragnatha,female,3.5,5.1,
507,MR2,U,tetragnathidae,tetragnatha,female,7.5,10.7,
508,MR2,U,tetragnathidae,tetragnatha,female,3.1,4.4,
509,MR2,U,tetragnathidae,tetragnatha,female,4.4,6.5,
510,MR2,U,tetragnathidae,tetragnatha,male,5.5,10.4,
511,MR2,U,tetragnathidae,tetragnatha,female,3.5,5.5,
512,MR2,U,tetragnathidae,tetragnatha,female,2.8,4,
513,MR2,U,tetragnathidae,tetragnatha,female,2.3,3.4,
514,MR2,U,tetragnathidae,tetragnatha,male,7,9.5,
515,MR2,U,tetragnathidae,tetragnatha,male,4.4,8.9,
516,MR2,U,tetragnathidae,tetragnatha,male,5.5,9.7,
517,MR2,U,tetragnathidae,tetragnatha,male,6.2,13.3,
518,MR2,U,tetragnathidae,tetragnatha,male,6,10.3,
519,MR2,U,tetragnathidae,tetragnatha,male,4.6,8.5,
520,MR2,U,tetragnathidae,tetragnatha,female,4.2,5.8,
521,MR2,U,tetragnathidae,tetragnatha,male,7,9,
522,MR2,U,tetragnathidae,tetragnatha,female,4.5,7.1,
523,MR2,U,tetragnathidae,tetragnatha,male,5.3,8,
524,MR2,U,tetragnathidae,tetragnatha,male,3.9,7.7,
525,MR2,U,tetragnathidae,tetragnatha,female,5.2,9,
526,MR2,U,tetragnathidae,tetragnatha,female,8.4,12.3,
527,MR2,U,tetragnathidae,tetragnatha,female,6.1,11.1,
528,MR2,U,tetragnathidae,tetragnatha,female,5.2,7.6,
529,MR2,U,tetragnathidae,tetragnatha,female,4.4,6.9,
530,MR2,U,tetragnathidae,tetragnatha,female,3.5,5.2,
531,MR2,U,tetragnathidae,tetragnatha,female,2.7,4.4,
532,MR2,U,tetragnathidae,tetragnatha,female,6.7,9.6,
533,MR2,U,tetragnathidae,tetragnatha,female,4.4,7,
534,MR2,U,tetragnathidae,tetragnatha,female,6,11.2,
535,MR2,U,tetragnathidae,tetragnatha,female,5.3,7.3,
536,MR2,U,tetragnathidae,tetragnatha,female,3.2,5,
537,MR2,U,tetragnathidae,tetragnatha,female,4.6,6.5,
538,MR2,U,tetragnathidae,tetragnatha,female,6.4,11.2,
539,MR2,U,tetragnathidae,tetragnatha,male,4.8,8,
540,MR2,U,tetragnathidae,tetragnatha,female,7.3,11.2,
541,MR2,U,tetragnathidae,tetragnatha,male,5.7,11,
542,MR2,U,tetragnathidae,tetragnatha,female,4.4,6.3,
543,MR2,U,tetragnathidae,tetragnatha,female,6.8,10.5,
544,MR2,U,tetragnathidae,tetragnatha,female,4,6,
545,MR2,U,tetragnathidae,tetragnatha,male,4.5,9.4,
546,MR2,U,tetragnathidae,tetragnatha,female,5.8,11.4,
547,MR2,U,tetragnathidae,tetragnatha,male,5.3,11,
548,MR2,U,tetragnathidae,tetragnatha,male,4.4,7.3,
549,MR2,U,tetragnathidae,tetragnatha,male,5.9,12.4,
550,MR2,U,tetragnathidae,tetragnatha,female,5.5,11.8,
551,MR2,U,tetragnathidae,tetragnatha,female,3.2,5.1,
552,MR2,U,tetragnathidae,tetragnatha,female,4.2,6,
553,MR2,U,tetragnathidae,tetragnatha,male,5.7,10.4,
554,MR2,U,tetragnathidae,tetragnatha,female,4,5.9,
555,MR2,U,tetragnathidae,tetragnatha,female,2.3,3.9,
556,MR2,U,tetragnathidae,tetragnatha,male,6,8.1,
557,MR2,U,araneidae,gea,female,2.5,4.4,
558,MR2,U,tetragnathidae,tetragnatha,male,6,12,
559,MR2,U,tetragnathidae,tetragnatha,female,8,13,
560,MR2,U,tetragnathidae,tetragnatha,female,4.5,6.7,
561,MR2,U,tetragnathidae,tetragnatha,female,4,6,
562,MR2,U,tetragnathidae,tetragnatha,female,4,5.7,
563,MR2,U,tetragnathidae,tetragnatha,male,5.5,9.1,
564,MR2,U,tetragnathidae,tetragnatha,female,2.2,3.4,
565,MR2,U,tetragnathidae,tetragnatha,male,4.6,8.5,
566,MR2,U,tetragnathidae,tetragnatha,male,4.5,7.3,
567,MR2,U,tetragnathidae,tetragnatha,female,3.8,6.1,
568,MR2,U,tetragnathidae,tetragnatha,female,abdomen detached from body,,
569,MR2,U,tetragnathidae,tetragnatha,female,2.3,3.8,
570,MR2,U,Se speciation,,,,,
571,MR2,U,tetragnathidae,tetragnatha,female,8,11.2,
572,MR2,U,tetragnathidae,tetragnatha,female,5.7,9.2,
573,MR2,U,tetragnathidae,tetragnatha,male,3.9,5.7,
574,MR2,U,tetragnathidae,tetragnatha,male,6,8.3,
575,MR2,U,tetragnathidae,tetragnatha,female,4.6,6.5,
576,MR2,U,tetragnathidae,tetragnatha,female,4.5,6.2,
577,MR2,U,tetragnathidae,tetragnatha,male,6.4,9.4,
578,MR2,U,tetragnathidae,tetragnatha,male,6.2,13.2,
579,MR2,U,tetragnathidae,tetragnatha,male,6.3,11.5,
580,MR2,U,tetragnathidae,tetragnatha,female,3.5,5.2,
581,MR2,U,tetragnathidae,tetragnatha,male,5.2,11,
582,MR2,U,tetragnathidae,tetragnatha,female,4.7,7.7,
583,MR2,U,tetragnathidae,tetragnatha,female,3.6,5.6,
584,MR2,U,tetragnathidae,tetragnatha,male,6.4,11.9,
585,MR2,U,tetragnathidae,tetragnatha,female,3,4.6,
586,MR2,U,tetragnathidae,leucauge,female,1.9,3.5,
587,MR2,U,tetragnathidae,tetragnatha,female,3,4.4,
588,MR2,U,tetragnathidae,tetragnatha,female,6.2,12.5,
589,MR2,U,tetragnathidae,tetragnatha,male,5.3,8.2,
590,MR2,U,tetragnathidae,tetragnatha,male,4.5,6.4,
591,MR2,U,tetragnathidae,tetragnatha,female,3.3,5.3,
592,MR2,U,tetragnathidae,tetragnatha,male,5.5,8.3,
593,MR2,U,tetragnathidae,tetragnatha,female,2.4,3.4,
594,MR2,U,tetragnathidae,tetragnatha,female,3.9,5.3,
595,MR2,U,tetragnathidae,tetragnatha,female,5.6,8.2,
596,MR2,U,tetragnathidae,tetragnatha,female,4.4,7,
597,MR2,U,tetragnathidae,tetragnatha,female,3.4,5.4,
598,MR2,U,araneidae,gea,female,4,6.3,
599,MR2,U,tetragnathidae,tetragnatha,male,6.4,11.1,
600,MR2,U,tetragnathidae,tetragnatha,male,5.4,10.4,
601,MR2,U,tetragnathidae,tetragnatha,female,4.2,6.3,
602,MR2,U,tetragnathidae,leucauge,male,2,3.5,
603,MR2,U,tetragnathidae,tetragnatha,female,3.1,4.5,
604,MR2,U,tetragnathidae,tetragnatha,female,7,11.3,
605,MR2,U,tetragnathidae,tetragnatha,female,2.4,3.7,
606,MR2,U,tetragnathidae,tetragnatha,female,8.2,13,
607,MR2,U,tetragnathidae,tetragnatha,female,abdomen detached from body,,
608,MR2,U,tetragnathidae,tetragnatha,female,8,14.1,
609,MR2,U,tetragnathidae,leucauge,female,2,2.9,
610,MR2,U,tetragnathidae,tetragnatha,female,4.2,5.7,
611,MR2,U,tetragnathidae,tetragnatha,female,9,13.3,
612,MR2,U,tetragnathidae,tetragnatha,female,5.2,8.3,
613,MR2,U,tetragnathidae,tetragnatha,male,6.5,12.5,
614,MR2,U,tetragnathidae,tetragnatha,female,5,7,
615,MR2,U,too smushed to ID,,,,,
616,MR2,U,tetragnathidae,tetragnatha,female,4.1,6.3,
617,MR2,U,tetragnathidae,tetragnatha,female,3.2,5.1,
618,MR2,U,tetragnathidae,tetragnatha,female,3.3,5.2,
619,MR2,U,tetragnathidae,tetragnatha,female,5.4,8.2,
620,MR2,U,tetragnathidae,tetragnatha,male,6.7,12.5,
621,MR2,U,tetragnathidae,tetragnatha,female,2.1,3.4,
622,MR2,U,tetragnathidae,tetragnatha,female,6,7.7,
623,MR2,U,tetragnathidae,tetragnatha,female,7.2,13,
624,MR2,U,tetragnathidae,tetragnatha,female,6.5,9.4,
625,MR2,U,araneidae,eustala,female,2.6,3.5,
626,MR2,U,tetragnathidae,tetragnatha,female,7.2,8.6,
627,MR2,U,tetragnathidae,tetragnatha,male,6.5,9.6,
628,MR2,U,tetragnathidae,tetragnatha,female,2.5,4,
629,MR2,U,tetragnathidae,tetragnatha,male,3.6,6.2,
630,MR2,U,tetragnathidae,tetragnatha,male,4.4,7,
631,MR2,U,tetragnathidae,tetragnatha,male,4.8,7.6,
632,MR2,U,tetragnathidae,tetragnatha,female,5,7,
633,MR2,U,tetragnathidae,tetragnatha,female,3.3,4.9,
634,MR2,U,tetragnathidae,tetragnatha,male,4.5,7,
635,LF,U,tetragnathidae,tetragnatha,female,4.1,6.1,
636,LF,U,tetragnathidae,tetragnatha,male,4.4,6.5,
637,LF,U,tetragnathidae,tetragnatha,male,5.5,10.5,
638,LF,U,tetragnathidae,tetragnatha,male,5.2,10,
639,LF,U,tetragnathidae,tetragnatha,female,3.7,5.8,
640,LF,U,tetragnathidae,tetragnatha,female,2.6,3.8,
641,LF,U,tetragnathidae,tetragnatha,female,4.4,8.2,
642,LF,U,tetragnathidae,tetragnatha,female,4.4,7,
643,LF,U,tetragnathidae,tetragnatha,female,1.7,2.8,
644,LF,U,Se speciation,,,,,
645,LF,U,tetragnathidae,tetragnatha,female,3.4,5.2,
646,LF,U,tetragnathidae,tetragnatha,female,5.6,7.7,
647,LF,U,tetragnathidae,tetragnatha,female,2.5,3.8,
648,LF,U,tetragnathidae,tetragnatha,female,3.4,5.3,
649,LF,U,tetragnathidae,tetragnatha,female,5.5,10.4,
650,LF,U,tetragnathidae,tetragnatha,female,6,9.1,
651,LF,U,tetragnathidae,instar,,,,
652,LF,U,tetragnathidae,tetragnatha,female,6,11.3,
653,LF,U,tetragnathidae,tetragnatha,female,4.9,6.5,
654,LF,U,tetragnathidae,tetragnatha,male,5,11,
655,LF,U,tetragnathidae,tetragnatha,female,9.2,13.6,
656,LF,U,tetragnathidae,tetragnatha,female,3,4.4,
657,LF,U,tetragnathidae,leucauge,male,2.3,3.5,
658,LF,U,tetragnathidae,tetragnatha,female,3.2,4.4,
659,LF,U,tetragnathidae,tetragnatha,male,5,10.4,
660,LF,U,tetragnathidae,tetragnatha,female,3.1,4.6,
661,LF,U,tetragnathidae,tetragnatha,female,3,4.1,
662,LF,U,tetragnathidae,tetragnatha,female,4.1,5.8,
663,LF,U,tetragnathidae,tetragnatha,female,4,6.5,
664,LF,U,tetragnathidae,tetragnatha,female,8,11,
665,LF,U,tetragnathidae,tetragnatha,female,5.7,8.6,
666,LF,U,tetragnathidae,tetragnatha,male,4.4,9.2,
667,LF,U,tetragnathidae,tetragnatha,female,4.6,7.8,
668,LF,U,tetragnathidae,tetragnatha,female,8.3,13,
669,LF,U,tetragnathidae,tetragnatha,female,4.3,6.4,
670,LF,U,tetragnathidae,tetragnatha,female,2.2,3.5,
671,LF,U,tetragnathidae,tetragnatha,female,4,6,
672,LF,U,tetragnathidae,tetragnatha,male,4.5,9,
673,LF,U,tetragnathidae,tetragnatha,male,7,9.9,
674,LF,U,tetragnathidae,tetragnatha,male,4.5,7.2,
675,LF,U,tetragnathidae,tetragnatha,female,7,10.5,
676,LF,U,tetragnathidae,tetragnatha,female,5.3,7.6,
677,LF,U,tetragnathidae,tetragnatha,female,4.4,6.7,
678,LF,U,tetragnathidae,tetragnatha,female,3,4.5,
679,LF,U,tetragnathidae,tetragnatha,female,5.1,7.5,
680,LF,U,tetragnathidae,tetragnatha,male,5,10.7,
681,LF,U,tetragnathidae,tetragnatha,male,5.2,8.5,
682,LF,U,tetragnathidae,tetragnatha,male,5,8,
683,LF,U,tetragnathidae,tetragnatha,female,7.1,10.5,
684,LF,U,tetragnathidae,tetragnatha,female,7.1,10.6,
685,LF,U,tetragnathidae,tetragnatha,male,6.8,9.4,
686,LF,U,tetragnathidae,tetragnatha,female,5.2,8.2,
687,LF,U,tetragnathidae,tetragnatha,female,4.2,6.1,
688,LF,U,tetragnathidae,tetragnatha,female,8.1,13.5,
689,LF,U,tetragnathidae,tetragnatha,female,6.1,8.8,
690,LF,U,tetragnathidae,tetragnatha,male,5.4,8,
691,LF,U,tetragnathidae,tetragnatha,female,2.3,3.5,
692,LF,U,tetragnathidae,tetragnatha,female,2.1,3.4,
693,LF,U,tetragnathidae,tetragnatha,female,4.2,6.2,
694,LF,U,tetragnathidae,tetragnatha,female,4.2,6.4,
695,LF,U,tetragnathidae,tetragnatha,female,3,4.6,
696,LF,U,tetragnathidae,tetragnatha,female,6.3,11.6,
697,LF,U,tetragnathidae,tetragnatha,female,7.5,10.7,
698,LF,U,tetragnathidae,tetragnatha,female,6.5,12.2,
699,LF,U,tetragnathidae,tetragnatha,female,7.2,10,
700,LF,U,tetragnathidae,tetragnatha,female,4.2,6,
701,LF,U,tetragnathidae,tetragnatha,female,3.7,5.5,
702,LF,U,tetragnathidae,tetragnatha,female,2.5,3.7,
703,LF,U,tetragnathidae,tetragnatha,female,2.5,3.9,
704,LF,U,tetragnathidae,tetragnatha,female,4.3,6.9,
705,LF,U,tetragnathidae,tetragnatha,male,4.4,6.8,
706,LF,U,tetragnathidae,tetragnatha,male,6.6,10.4,
707,LF,U,tetragnathidae,tetragnatha,female,3.3,4.5,
708,LF,U,tetragnathidae,tetragnatha,female,6.9,9.3,
709,LF,U,Se speciation,,,,,
710,LF,U,tetragnathidae,tetragnatha,female,3.6,5.5,
711,LF,U,tetragnathidae,tetragnatha,female,6,9.2,
712,LF,U,tetragnathidae,tetragnatha,male,5,7.8,
713,LF,U,tetragnathidae,tetragnatha,male,7.3,11.5,
714,MR7,N,tetragnathidae,tetragnatha,female,2.3,4,
715,MR7,N,tetragnathidae,tetragnatha,female,2.4,3.7,
716,MR7,N,tetragnathidae,tetragnatha,female,7.8,13.6,
717,MR7,N,tetragnathidae,tetragnatha,female,2.4,3.7,
718,MR7,N,tetragnathidae,tetragnatha,female,6.2,9.5,
719,MR7,N,tetragnathidae,tetragnatha,male,5.4,10.4,
720,MR7,N,tetragnathidae,tetragnatha,female,3.2,5.5,
721,MR7,N,tetragnathidae,tetragnatha,male,3.6,5,
722,MR7,N,tetragnathidae,tetragnatha,female,4.3,6.9,
723,MR7,N,,,,,,
724,MR7,N,tetragnathidae,leucauge,male,3.5,5.2,
725,MR7,N,tetragnathidae,tetragnatha,female,3.2,4.6,
726,MR7,N,tetragnathidae,tetragnatha,male,5.3,10.5,
727,MR7,N,tetragnathidae,leucauge,female,2.1,2.9,
728,MR7,N,tetragnathidae,tetragnatha,male,5,9,
729,MR7,N,tetragnathidae,tetragnatha,female,1.8,3.4,
730,MR7,N,tetragnathidae,leucauge,male,2.5,4.4,
731,MR7,N,tetragnathidae,leucauge,female,3.2,4.7,
732,MR7,N,tetragnathidae,leucauge,male,2.3,4,
733,MR7,N,tetragnathidae,leucauge,male,2.5,4.1,
734,MR7,N,tetragnathidae,tetragnatha,female,2.2,4.6,
735,MR7,N,tetragnathidae,leucauge,female,2.5,4.2,
736,MR7,N,tetragnathidae,tetragnatha,female,3.4,5,
737,MR7,N,tetragnathidae,tetragnatha,female,2.4,4,
738,MR7,N,tetragnathidae,leucauge,female,3.4,4.6,
739,MR7,N,tetragnathidae,tetragnatha,female,2.3,3.4,
740,MR7,N,Se speciation,,,,,
741,MR7,N,tetragnathidae,tetragnatha,male,5,10.8,
742,MR7,N,tetragnathidae,tetragnatha,male,5.4,11.6,
743,MR7,N,tetragnathidae,leucauge,female,4.8,6.6,
744,MR7,N,tetragnathidae,tetragnatha,male,3.5,5.3,
745,MR7,N,tetragnathidae,tetragnatha,female,2,3.1,
746,MR7,N,tetragnathidae,tetragnatha,male,6,11.7,
747,MR7,N,tetragnathidae,leucauge,female,3,5.4,
748,MR7,N,tetragnathidae,tetragnatha,female,2.9,4.5,
749,MR7,N,tetragnathidae,tetragnatha,male,6.2,8.7,
750,MR7,N,tetragnathidae,tetragnatha,female,3.5,5.1,
751,MR7,N,tetragnathidae,tetragnatha,male,4.9,9,
752,MR7,N,tetragnathidae,tetragnatha,female,2.3,3.3,
753,MR7,N,tetragnathidae,tetragnatha,female,3.1,5.1,
754,MR7,N,tetragnathidae,tetragnatha,female,3.8,6.3,
755,MR7,N,araneidae,instar,,,,
756,MR7,N,tetragnathidae,tetragnatha,female,3.6,6.5,
757,MR7,N,tetragnathidae,tetragnatha,female,3.2,5.3,
758,MR7,N,tetragnathidae,leucauge,female,3.3,4.9,
759,MR7,N,araneidae,gea,,,,
760,MR7,N,tetragnathidae,tetragnatha,female,4.4,6.5,
761,MR7,N,tetragnathidae,tetragnatha,female,4.5,6.5,
762,MR7,N,tetragnathidae,tetragnatha,female,3.1,5.2,
763,MR7,N,tetragnathidae,tetragnatha,female,3,4.3,
764,MR7,N,tetragnathidae,tetragnatha,male,4.7,10.2,
765,MR7,N,tetragnathidae,tetragnatha,female,abdomen detached from body,,
766,MR7,N,tetragnathidae,tetragnatha,female,3.1,4.5,
767,MR7,N,tetragnathidae,instar,,,,
768,MR7,N,tetragnathidae,tetragnatha,female,2.5,4.2,
769,MR7,N,tetragnathidae,tetragnatha,female,3.1,4.4,
770,MR7,N,tetragnathidae,tetragnatha,female,5.6,8.5,
771,MR7,N,tetragnathidae,tetragnatha,female,3.6,5.6,
772,MR7,N,tetragnathidae,tetragnatha,male,1.4,2.4,
773,MR7,N,tetragnathidae,tetragnatha,female,3,4.7,
773 A,MR7,N,Se speciation,,,,,
774,MR7,N,tetragnathidae,tetragnatha,male,6,8.8,
775,MR7,N,araneidae,cyclosa,female,3.5,4.5,
776,MR7,N,tetragnathidae,tetragnatha,male,6.1,9.1,
777,MR7,N,tetragnathidae,tetragnatha,male,6.8,10.6,
778,MR7,N,tetragnathidae,tetragnatha,female,4,5.6,
779,MR7,N,tetragnathidae,tetragnatha,male,6,9.7,
780,MR7,N,tetragnathidae,tetragnatha,female,3.1,5.4,
781,MR7,N,tetragnathidae,tetragnatha,female,7.2,11,
782,MR7,N,tetragnathidae,tetragnatha,female,4.7,6.8,
783,MR7,N,tetragnathidae,tetragnatha,female,3.5,5.6,
784,MR7,N,tetragnathidae,tetragnatha,male,5.7,10.4,
785,MR7,N,tetragnathidae,tetragnatha,female,5,8.2,
786,MR7,N,tetragnathidae,tetragnatha,female,3,4.3,
787,MR7,N,tetragnathidae,tetragnatha,female,3.1,4.4,
788,MR7,N,tetragnathidae,tetragnatha,female,3.3,5,
789,MR7,N,tetragnathidae,tetragnatha,female,7,12.4,
790,MR7,N,araneidae,eustala,female,3.5,5.9,
791,MR7,N,araneidae,cyclosa,female,2.5,3.6,
792,MR7,N,tetragnathidae,leucauge,female,2.6,4.6,
793,MR7,N,araneidae,?,male,4.8,8,
794,MR7,N,araneidae,eustala,female,4,6.5,
795,MR7,N,tetragnathidae,tetragnatha,male,4.6,9,
796,MR7,N,tetragnathidae,tetragnatha,female,3.9,4.6,
797,MR7,N,tetragnathidae,tetragnatha,female,2,3,
798,MR7,N,araneidae,cyclosa,male,2,3.2,
799,MR7,N,tetragnathidae,tetragnatha,male,2.8,4.4,
800,MR7,N,tetragnathidae,tetragnatha,female,2.7,3.6,
801,MR7,N,tetragnathidae,tetragnatha,female,2.2,3.3,
802,MR7,N,araneidae,cyclosa,female,4,4.8,
803,MR7,N,tetragnathidae,tetragnatha,female,7.9,12.3,
804,MR7,N,tetragnathidae,tetragnatha,female,3.5,5.4,
805,MR7,N,tetragnathidae,leucauge,male,3.2,4.4,
806,MR7,N,tetragnathidae,tetragnatha,female,2.9,4.4,
807,MR7,N,tetragnathidae,tetragnatha,female,3.7,5.2,
808,MR7,N,tetragnathidae,tetragnatha,female,6,11.8,
809,MR7,N,tetragnathidae,tetragnatha,female,5.7,8.5,
810,MR7,N,tetragnathidae,tetragnatha,female,6,9.1,
811,MB,P,araneidae,instar,,,,
812,MB,P,tetragnathidae,tetragnatha,female,5.4,10,
813,MB,P,tetragnathidae,tetragnatha,male,4.5,8.7,
814,MB,P,tetragnathidae,tetragnatha,male,4.8,8.5,
815,MB,P,tetragnathidae,tetragnatha,female,7.5,12.6,
816,MB,P,tetragnathidae,tetragnatha,female,5.8,8.2,
817,MB,P,Se speciation,,,,,
818,MB,P,tetragnathidae,tetragnatha,female,5.3,9,
819,MB,P,araneidae,instar,,,,
820,MB,P,tetragnathidae,tetragnatha,male,6.6,10.2,
821,MB,P,tetragnathidae,tetragnatha,male,4.4,7.2,
822,MB,P,tetragnathidae,tetragnatha,female,8.4,12.6,
823,MB,P,tetragnathidae,tetragnatha,female,5.2,9,
824,MB,P,araneidae,eustala,female,2,3.2,
825,MB,P,tetragnathidae,tetragnatha,female,3.5,5.5,
826,MB,P,tetragnathidae,tetragnatha,male,5.9,8.6,
827,MB,P,tetragnathidae,tetragnatha,female,5.6,8.5,
828,MB,P,Se speciation,,,,,
829,MB,P,tetragnathidae,leucauge,female,3.4,4.4,
830,MB,P,tetragnathidae,tetragnatha,male,5.4,10.7,
831,MB,P,tetragnathidae,leucauge,female,3.4,5.7,
832,MB,P,tetragnathidae,tetragnatha,female,6.5,12,
833,MB,P,tetragnathidae,tetragnatha,female,5.6,8.5,
834,MB,P,tetragnathidae,tetragnatha,female,7.4,10.2,
835,MB,P,tetragnathidae,tetragnatha,female,8.6,11.7,
836,MB,P,tetragnathidae,tetragnatha,female,5.3,7.4,
837,MB,P,tetragnathidae,tetragnatha,male,4.2,9.5,
838,MB,P,tetragnathidae,leucauge,female,3,4.4,
839,MB,P,tetragnathidae,tetragnatha,female,8,14.5,
840,MB,P,tetragnathidae,tetragnatha,male,3.4,4.6,
841,MB,P,tetragnathidae,tetragnatha,female,9.2,13.5,
842,MB,P,tetragnathidae,tetragnatha,male,5.4,11.1,
843,MB,P,tetragnathidae,tetragnatha,male,5.2,11,
844,MB,P,tetragnathidae,leucauge,female,3.4,5.7,
845,MB,P,tetragnathidae,leucauge,male,2.1,3.3,
846,MB,P,tetragnathidae,tetragnatha,female,10,14.2,
847,MB,P,tetragnathidae,leucauge,female,2,3.1,
848,MB,P,tetragnathidae,tetragnatha,female,7.7,11.6,
849,MB,P,tetragnathidae,tetragnatha,male,6.2,13.1,
850,MB,P,tetragnathidae,tetragnatha,female,4.9,7.4,
851,MB,P,tetragnathidae,tetragnatha,male,6,12,
852,MB,P,tetragnathidae,tetragnatha,female,4.4,6.5,
853,MB,P,tetragnathidae,tetragnatha,male,5,10.9,
854,MB,P,tetragnathidae,tetragnatha,male,4.9,9.9,
855,MB,P,tetragnathidae,tetragnatha,female,10,14.4,
856,MB,P,tetragnathidae,tetragnatha,female,8.4,12.8,
857,MB,P,tetragnathidae,leucauge,male,2.2,3.5,
858,MB,P,tetragnathidae,tetragnatha,female,5.8,9,
859,MB,P,tetragnathidae,tetragnatha,male,5.5,9.8,
860,MB,P,tetragnathidae,tetragnatha,female,9.3,13,
861,MB,P,tetragnathidae,tetragnatha,female,3.6,5.6,
862,MB,P,tetragnathidae,instar,,,,
863,MB,P,araneidae,gea,female,3,4,
864,MB,P,tetragnathidae,tetragnatha,female,6,9,
865,MB,P,tetragnathidae,leucauge,female,2.5,3.4,
866,MB,P,tetragnathidae,tetragnatha,female,9.1,13.8,
867,MB,P,tetragnathidae,tetragnatha,female,6.8,10.5,
868,MB,P,tetragnathidae,tetragnatha,female,5,6.8,
869,MB,P,tetragnathidae,tetragnatha,female,8.6,13.8,
870,MB,P,tetragnathidae,tetragnatha,female,7.4,13,
871,MB,P,tetragnathidae,tetragnatha,female,4,5.6,
872,MB,P,tetragnathidae,tetragnatha,male,7.1,10.5,
873,MB,P,tetragnathidae,tetragnatha,male,5.7,8.9,
874,MB,P,tetragnathidae,tetragnatha,male,4,6.8,
875,MB,P,tetragnathidae,tetragnatha,female,6.4,12.8,
876,MB,P,tetragnathidae,tetragnatha,female,8.5,11.9,
877,MB,P,tetragnathidae,tetragnatha,male,6.7,13,
878,MB,P,tetragnathidae,leucauge,male,2.4,3.8,
879,MB,P,tetragnathidae,tetragnatha,female,3.6,5.6,
880,MB,P,tetragnathidae,tetragnatha,female,7.8,13.6,
881,MB,P,tetragnathidae,tetragnatha,female,9.6,12.9,
882,MB,P,tetragnathidae,tetragnatha,female,6.4,9.2,
883,MB,P,tetragnathidae,tetragnatha,male,5,9.3,
884,MB,P,tetragnathidae,tetragnatha,male,6.8,10.2,
885,MB,P,araneidae,eustala,male,3,4.5,
886,MB,P,tetragnathidae,tetragnatha,female,6,8.7,
887,MB,P,tetragnathidae,tetragnatha,female,5.9,8.8,
888,MR14,N,tetragnathidae,tetragnatha,female,7.5,10.6,
889,MR14,N,tetragnathidae,tetragnatha,female,4.9,7.5,
890,MR14,N,tetragnathidae,tetragnatha,female,2,2.9,
891,MR14,N,Se speciation,,,,,
892,MR14,N,araneidae,araniella,,,,
893,MR14,N,araneidae,instar,female,1.8,3,
894,MR14,N,tetragnathidae,tetragnatha,female,7,11.8,
895,MR14,N,tetragnathidae,tetragnatha,female,4.3,6.4,
896,MR14,N,araneidae,gea,female,3.2,5.4,
897,MR14,N,Se speciation,,,,,
898,MR14,N,araneidae,instar,female,1.2,2,
899,MR14,N,tetragnathidae,tetragnatha,male,5.5,10.2,
900,MR14,N,tetragnathidae,tetragnatha,male,6.5,10.8,
901,MR14,N,tetragnathidae,tetragnatha,female,6,8.9,
902,MR14,N,tetragnathidae,tetragnatha,male,6,11.6,
903,MR14,N,tetragnathidae,tetragnatha,female,3.5,5.1,
904,MR14,N,tetragnathidae,tetragnatha,female,5.2,8,
905,MR14,N,tetragnathidae,tetragnatha,male,4.4,7.2,
906,MR14,N,tetragnathidae,tetragnatha,female,4,6.4,
907,MR14,N,tetragnathidae,tetragnatha,female,2.7,4.2,
908,MR14,N,tetragnathidae,tetragnatha,female,7.1,9.2,
909,MR14,N,tetragnathidae,tetragnatha,female,5.4,7.2,
910,MR14,N,tetragnathidae,leucauge,male,2.5,4.4,
911,MR14,N,tetragnathidae,tetragnatha,female,2.4,3.7,
912,MR14,N,tetragnathidae,tetragnatha,female,2.7,3.9,
913,MR14,N,tetragnathidae,tetragnatha,female,2,3.5,
914,MR14,N,tetragnathidae,instar,female,1.2,2,
915,MR14,N,tetragnathidae,tetragnatha,female,4.1,6,
916,MR14,N,tetragnathidae,tetragnatha,female,5.2,7.7,
917,MR14,N,tetragnathidae,tetragnatha,female,5.3,7.5,
918,MR14,N,tetragnathidae,tetragnatha,male,5.5,10.6,
919,MR14,N,tetragnathidae,tetragnatha,female,4.5,5.5,
920,MR14,N,tetragnathidae,tetragnatha,female,3.7,5.4,
921,MR14,N,tetragnathidae,tetragnatha,male,4.7,8.8,
922,MR14,N,tetragnathidae,tetragnatha,male,5.4,10.1,
923,MR14,N,tetragnathidae,tetragnatha,female,8.4,13,
924,MR14,N,tetragnathidae,tetragnatha,male,6,12.4,
925,MR14,N,tetragnathidae,instar,female,1.8,2.7,
926,MR14,N,tetragnathidae,instar,female,1.9,3,
927,MR14,N,tetragnathidae,tetragnatha,female,7.4,10,
928,MR14,N,tetragnathidae,leucauge,female,2.6,4,
929,MR14,N,tetragnathidae,tetragnatha,female,4,5.8,
930,MR14,N,tetragnathidae,tetragnatha,female,5.2,7.2,
931,MR14,N,tetragnathidae,tetragnatha,male,4.8,8.4,
932,MR14,N,tetragnathidae,tetragnatha,female,4.5,7.6,
